-------------------------------------------------------------------------------
Test set: com.epam.newsmanagement.service.TagServiceTest
-------------------------------------------------------------------------------
Tests run: 4, Failures: 0, Errors: 0, Skipped: 0, Time elapsed: 0.072 sec
