-------------------------------------------------------------------------------
Test set: com.epam.newsmanagement.dao.NewsDaoTest
-------------------------------------------------------------------------------
Tests run: 7, Failures: 0, Errors: 0, Skipped: 0, Time elapsed: 0.805 sec
